{
    "version" : 2,
    "builds" : [{
                "src" : "build/app.js",
                "use" : "@vercel/node",
                "config": { "includeFiles": ["build/**"] }
            }
        ],
        "routes" : [{
            "src" : "/(.*)",
            "dest" : "build/app.js"
        }
    ]
}